[
  {
    "id": "donate",
    "name": "Привилегии",
    "description": "Все виды групп привилегий с дополнительными возможностями",
    "default": true,
    "items": [
      {
        "id": "vip",
        "name": "VIP",
        "description": "Привилегия VIP",
        "price": 50,
        "discount": true,
        "info": [
          {
            "header": "Описание привилегии",
            "description": ["Подпункты описания", "Подпункты описания"]
          }
        ]
      },
      {
        "id": "vip_plus",
        "name": "VIP+",
        "description": "Привилегия VIP+",
        "price": 250,
        "info": [
          {
            "header": "Описание привилегии",
            "description": ["Подпункты описания", "Подпункты описания"]
          }
        ]
      },
      {
        "id": "premium",
        "name": "Premium",
        "description": "Привилегия Premium",
        "price": 500,
        "info": [
          {
            "header": "Описание привилегии",
            "description": ["Подпункты описания", "Подпункты описания"]
          }
        ]
      },
      {
        "id": "deluxe",
        "name": "Deluxe",
        "description": "Привилегия Deluxe",
        "price": 1000,
        "info": [
          {
            "header": "Описание привилегии",
            "description": ["Подпункты описания", "Подпункты описания"]
          }
        ]
      },
      {
        "id": "legend",
        "name": "Legend",
        "description": "Привилегия Legend",
        "price": 2000,
        "info": [
          {
            "header": "Описание привилегии",
            "description": ["Подпункты описания", "Подпункты описания"]
          }
        ]
      },
      {
        "id": "ultimate",
        "name": "Ultimate",
        "description": "Привилегия Ultimate",
        "price": 5000,
        "discount": true,
        "info": [
          {
            "header": "Описание привилегии",
            "description": ["Подпункты описания", "Подпункты описания"]
          }
        ]
      }
    ]
  },
  {
    "id": "currency",
    "name": "Валюта",
    "description": "Специальная внутриигровая валюта, на которую вы можете купить внутриигровой контент.",
    "items": [
      {
        "id": "currency_100",
        "name": "100 монет",
        "description": "Маленькая кучка золота",
        "price": 25,
        "info": [
          {
            "header": "Что даёт золото?",
            "description": [
              "Вы можете купить уникальные шапки и пушки на ShipWars",
              "Покупка этажей в кодинге на Creative+",
              "Возможность торговаться с игроками",
              "Поддержка сервера"
            ]
          }
        ]
      },
      {
        "id": "currency_500",
        "name": "500 монет",
        "description": "Небольшой мешок золота",
        "price": 100,
        "info": [
          {
            "header": "Что даёт золото?",
            "description": [
              "Вы можете купить уникальные шапки и пушки на ShipWars",
              "Покупка этажей в кодинге на Creative+",
              "Возможность торговаться с игроками",
              "Поддержка сервера"
            ]
          }
        ]
      },
      {
        "id": "currency_1000",
        "name": "1000 монет",
        "description": "Сундук золота",
        "price": 200,
        "info": [
          {
            "header": "Что даёт золото?",
            "description": [
              "Вы можете купить уникальные шапки и пушки на ShipWars",
              "Покупка этажей в кодинге на Creative+",
              "Возможность торговаться с игроками",
              "Поддержка сервера"
            ]
          }
        ]
      },
      {
        "id": "currency_5000",
        "name": "5000 монет",
        "description": "Повозка золота",
        "price": 900,
        "discount": true,
        "info": [
          {
            "header": "Что даёт золото?",
            "description": [
              "Вы можете купить уникальные шапки и пушки на ShipWars",
              "Покупка этажей в кодинге на Creative+",
              "Возможность торговаться с игроками",
              "Поддержка сервера"
            ]
          }
        ]
      },
      {
        "id": "currency_10000",
        "name": "10000 монет",
        "description": "Шахта золота",
        "price": 2000,
        "info": [
          {
            "header": "Что даёт золото?",
            "description": [
              "Вы можете купить уникальные шапки и пушки на ShipWars",
              "Покупка этажей в кодинге на Creative+",
              "Возможность торговаться с игроками",
              "Поддержка сервера"
            ]
          }
        ]
      }
    ]
  },
  {
    "id": "special",
    "name": "Специальные привилегии",
    "description": "Уникальные возможности и привилегии доступные за символическую цену.",
    "items": [
      {
        "id": "unban",
        "name": "Разбан",
        "description": "Нарушил правило и получил бан? Это твоё спасение!",
        "price": 100,
        "info": [
          {
            "header": "Зачем это нужно?",
            "description": [
              "Если вы нарушили несколько правил, но вы решили искупить свою вину - это то что вам надо!",
              "Вы можете вернуться к игре на сервере купив разбан. Все ваши вещи сохраняться, не бойтесь.",
              "Важно: Разбан работает не на всех правилах. Внимательно читайте наказания за нарушения!"
            ]
          }
        ]
      },
      {
        "id": "restore",
        "name": "Восстановление аккаунта",
        "description": "Потерял пароль или почту? Спасение есть!",
        "price": 200,
        "info": [
          {
            "header": "Зачем это нужно?",
            "description": [
              "Если вы потеряли пароль к своему аккаунту - мы поможем изменить ваш пароль.",
              "Если вы потеряли почту, которую привязывали к своему аккаунту - мы поможем отвязать её от вашего аккаунта",
              "Важно: Если у вас недостаточно доказательств что вы владеете аккаунтом, который хотите восстановить, то нам восстановить аккаунт будет невозможно! Храните свои скрины с сервера."
            ]
          }
        ]
      },
      {
        "id": "suffix",
        "name": "Суффикс",
        "description": "Хочешь выделиться? Покупай суффикс и будь не таким как все!",
        "price": 400,
        "discount": true,
        "info": [
          {
            "header": "Уникальность",
            "description": [
              "Вам будет дан выбор вашего собственного суффикса - выбирайте мудро, изменить его будет невозможно!",
              "Важно: Суффикс должен соответствовать правилам по чату и быть приемлимым по своей стилистике."
            ]
          }
        ]
      },
      {
        "id": "rename",
        "name": "Изменение ник",
        "description": "Не нравится нынешний ник? Мы поможем изменить его.",
        "price": 100,
        "info": [
          {
            "header": "Зачем это нужно?",
            "description": [
              "Если вы хотите \"перенести\" донат на другой ник - это может вам помочь.",
              "Или если вы просто хотите изменить несколько символов в своём нике - это то что вам надо!",
              "Важно: Если у вас недостаточно доказательств что аккаунт принадлежит вам - то изменить ник мы не сможем."
            ]
          }
        ]
      }
    ]
  },
  {
    "id": "cases",
    "name": "Кейсы",
    "description": "Что скрывается в этих сундуках? Купи и разгадай этот секрет.",
    "items": [
      {
        "id": "shipwars",
        "name": "Кейс ShipWars",
        "description": "Кейс из глубоких впадин океанов... Открой его и получи уникальную шапку или пушку!",
        "price": 15,
        "discount": true,
        "countable": true,
        "info": [
          {
            "header": "Что находится внутри кейса?",
            "description": [
              "Несколько обычных шапок и скинов на пушек ShipWars",
              "Редкая озвучка победы вашей команды",
              "Эпические огненная и молненная пушка",
              "Легендарная шапка Капитана Воробья"
            ]
          }
        ]
      }
    ]
  }
]
